{
    "key": "group_5bd609532ff6c",
    "title": "Template - Brands",
    "fields": [
        {
            "key": "field_5bd6095c259cb",
            "label": "Brand Sections",
            "name": "brand_sections",
            "type": "repeater",
            "instructions": "",
            "required": 0,
            "conditional_logic": 0,
            "wrapper": {
                "width": "",
                "class": "",
                "id": ""
            },
            "collapsed": "field_5bd6098c259cf",
            "min": 0,
            "max": 0,
            "layout": "row",
            "button_label": "Add Brand",
            "sub_fields": [
                {
                    "key": "field_5bd6098c259cf",
                    "label": "Brand",
                    "name": "brand",
                    "type": "taxonomy",
                    "instructions": "",
                    "required": 0,
                    "conditional_logic": 0,
                    "wrapper": {
                        "width": "",
                        "class": "",
                        "id": ""
                    },
                    "taxonomy": "brand",
                    "field_type": "select",
                    "allow_null": 0,
                    "add_term": 0,
                    "save_terms": 0,
                    "load_terms": 0,
                    "return_format": "object",
                    "multiple": 0
                },
                {
                    "key": "field_5bd60965259cc",
                    "label": "Logo",
                    "name": "logo",
                    "type": "image",
                    "instructions": "Optional: Only if you want to override the logo assigned to this Brand. See <a href=\"https:\/\/usstove.test\/wp-admin\/edit-tags.php?taxonomy=brand&post_type=product\">Brand Taxonomy<\/a> for default content.",
                    "required": 0,
                    "conditional_logic": 0,
                    "wrapper": {
                        "width": "",
                        "class": "",
                        "id": ""
                    },
                    "return_format": "array",
                    "preview_size": "medium",
                    "library": "all",
                    "min_width": "",
                    "min_height": "",
                    "min_size": "",
                    "max_width": "",
                    "max_height": "",
                    "max_size": "",
                    "mime_types": ""
                },
                {
                    "key": "field_5bd6096d259cd",
                    "label": "Name",
                    "name": "name",
                    "type": "text",
                    "instructions": "Optional: Only if you want to override the name assigned to this Brand. See <a href=\"https:\/\/usstove.test\/wp-admin\/edit-tags.php?taxonomy=brand&post_type=product\">Brand Taxonomy<\/a> for default content.",
                    "required": 0,
                    "conditional_logic": 0,
                    "wrapper": {
                        "width": "",
                        "class": "",
                        "id": ""
                    },
                    "default_value": "",
                    "placeholder": "",
                    "prepend": "",
                    "append": "",
                    "maxlength": ""
                },
                {
                    "key": "field_5bd60984259ce",
                    "label": "Content",
                    "name": "content",
                    "type": "wysiwyg",
                    "instructions": "Optional: Only if you want to override the content assigned to this Brand. See <a href=\"https:\/\/usstove.test\/wp-admin\/edit-tags.php?taxonomy=brand&post_type=product\">Brand Taxonomy<\/a> for default content.",
                    "required": 0,
                    "conditional_logic": 0,
                    "wrapper": {
                        "width": "",
                        "class": "",
                        "id": ""
                    },
                    "default_value": "",
                    "tabs": "all",
                    "toolbar": "full",
                    "media_upload": 1,
                    "delay": 0
                }
            ]
        }
    ],
    "location": [
        [
            {
                "param": "post_template",
                "operator": "==",
                "value": "template-brands.php"
            }
        ]
    ],
    "menu_order": 0,
    "position": "normal",
    "style": "default",
    "label_placement": "top",
    "instruction_placement": "label",
    "hide_on_screen": "",
    "active": 1,
    "description": "",
    "modified": 1589512624
}