{
  "entry": {
    "main": [
      "./scripts/main.js",
      "./styles/main.scss"
    ],
    "admin": [
      "./styles/admin.scss"
    ],
    "tinymce": [
      "./styles/tinymce.scss"
    ]
  },
  "publicPath": "/wp-content/themes/usscgrills",
  "devUrl": "https://usscgrills.test",
  "proxyUrl": "https://localhost:3000",
  "cacheBusting": "[name]_[hash:8]",
  "watch": [
    "lib/**/*.php",
    "resources/**/*.php"
  ]
}
